<svg xmlns="http://www.w3.org/2000/svg" xmlns:xlink="http://www.w3.org/1999/xlink" width="687.805" height="55.331" viewBox="0 0 687.805 55.331">
  <defs>
    <linearGradient id="linear-gradient" y1="0.5" x2="1" y2="0.5" gradientUnits="objectBoundingBox">
      <stop offset="0" stop-color="#7b1019"/>
      <stop offset="0.141" stop-color="#9e0c1a"/>
      <stop offset="0.276" stop-color="#d53d08"/>
      <stop offset="0.393" stop-color="#d43d25"/>
      <stop offset="0.54" stop-color="#9d0c1a"/>
      <stop offset="0.706" stop-color="#da5335"/>
      <stop offset="0.902" stop-color="#b85037"/>
      <stop offset="1" stop-color="#bc0015"/>
    </linearGradient>
  </defs>
  <rect id="campaign-red-bg" width="687.805" height="55.331" fill="url(#linear-gradient)"/>
</svg>
