<svg xmlns="http://www.w3.org/2000/svg" xmlns:xlink="http://www.w3.org/1999/xlink" width="55.494" height="48.028" viewBox="0 0 55.494 48.028">
  <defs>
    <linearGradient id="linear-gradient" x1="1.313" y1="0.67" x2="0.701" y2="-0.037" gradientUnits="objectBoundingBox">
      <stop offset="0" stop-color="#c1c1c1"/>
      <stop offset="1" stop-color="#fff"/>
    </linearGradient>
    <linearGradient id="linear-gradient-2" x1="0.942" y1="0.799" x2="1.824" y2="-0.22" xlink:href="#linear-gradient"/>
    <radialGradient id="radial-gradient" cx="0.5" cy="0.5" r="0.578" gradientTransform="translate(0.205 0.067) scale(0.865 0.865)" gradientUnits="objectBoundingBox">
      <stop offset="0.89" stop-color="#fff"/>
      <stop offset="0.905" stop-color="#d2d2d2"/>
      <stop offset="0.931" stop-color="#8b8989"/>
      <stop offset="0.955" stop-color="#524f50"/>
      <stop offset="0.975" stop-color="#292626"/>
      <stop offset="0.991" stop-color="#100c0d"/>
      <stop offset="1" stop-color="#070304"/>
    </radialGradient>
  </defs>
  <g id="benefits-counter-circle" transform="translate(-51.719 -4889.625)">
    <g id="Group_243" data-name="Group 243">
      <g id="Group_242" data-name="Group 242">
        <path id="Path_92" data-name="Path 92" d="M107.213,4913.638c0,13.263-12.424,24.015-27.748,24.015s-27.746-10.752-27.746-24.015,12.423-24.013,27.746-24.013S107.213,4900.375,107.213,4913.638Z" fill="url(#linear-gradient)"/>
        <path id="Path_93" data-name="Path 93" d="M105.826,4913.639c0,12.6-11.8,22.814-26.361,22.814s-26.358-10.215-26.358-22.814,11.8-22.813,26.358-22.813S105.826,4901.039,105.826,4913.639Z" fill="url(#linear-gradient-2)"/>
        <path id="Path_94" data-name="Path 94" d="M97.5,4913.639c0,8.62-8.076,15.609-18.036,15.609s-18.035-6.989-18.035-15.609,8.074-15.609,18.035-15.609S97.5,4905.018,97.5,4913.639Z" fill="#6eb499"/>
        <path id="Path_95" data-name="Path 95" d="M97.5,4913.639c0,8.62-8.076,15.609-18.036,15.609s-18.035-6.989-18.035-15.609,8.074-15.609,18.035-15.609S97.5,4905.018,97.5,4913.639Z" opacity="0.2" fill="url(#radial-gradient)" style="mix-blend-mode: multiply;isolation: isolate"/>
      </g>
    </g>
  </g>
</svg>
