<svg xmlns="http://www.w3.org/2000/svg" xmlns:xlink="http://www.w3.org/1999/xlink" width="235.802" height="235.802" viewBox="0 0 235.802 235.802">
  <defs>
    <filter id="problem-circles" x="0" y="0" width="235.802" height="235.802" filterUnits="userSpaceOnUse">
      <feOffset dx="4.714" dy="4.714" input="SourceAlpha"/>
      <feGaussianBlur stdDeviation="2.357" result="blur"/>
      <feFlood flood-color="#5a5a5a" flood-opacity="0.749"/>
      <feComposite operator="in" in2="blur"/>
      <feComposite in="SourceGraphic"/>
    </filter>
  </defs>
  <g transform="matrix(1, 0, 0, 1, 0, 0)" filter="url(#problem-circles)">
    <circle id="problem-circles-2" data-name="problem-circles" cx="110.83" cy="110.83" r="110.83" transform="translate(2.36 2.36)" fill="#fff"/>
  </g>
</svg>
